<svg width="512" height="512" xmlns="http://www.w3.org/2000/svg">
 <clipPath id="a">
  <path d="m0,0l756.13,0l0,168.35l-756.13,0l0,-168.35z" id="svg_1"/>
 </clipPath>

 <clipPath id="b">
  <path d="m0,167.75l756.13,0l0,168.34l-756.13,0l0,-168.34z" id="svg_2"/>
 </clipPath>
 <clipPath id="c">
  <path d="m0,335.51l756.13,0l0,168.58l-756.13,0l0,-168.58z" id="svg_3"/>
 </clipPath>
 <g>
  <title>background</title>
  <rect x="-1" y="-1" width="514" height="514" id="canvas_background" fill="#ffffff"/>
 </g>
 <g>
  <title>Layer 1</title>
  <g clip-path="url(#a)" transform="translate(0,0) scale(1,2.9999403953552246) " id="svg_4" stroke="null">
   <path d="m0,0l516.12997,0l0,57.03l-516.12997,0l0,-57.03z" fill="#c7363d" fill-rule="evenodd" id="svg_5" stroke="null"/>
  </g>
  <g clip-path="url(#b)" transform="matrix(0.6821125745773315,0,0,1.9975065,-0.31788742542266846,-167.20204) " id="svg_6">
   <path d="m0,168.81148l756.13,0l0,168.44l-756.13,0l0,-168.44z" fill="#0d4077" fill-rule="evenodd" id="svg_7"/>
  </g>
  <g clip-path="url(#c)" id="svg_8" stroke="null">
   <path d="m0,341.999991l756.13,0l0,165.29l-756.13,0l0,-165.29z" fill="#fff" fill-rule="evenodd" id="svg_9" stroke="null"/>
  </g>
 </g>
</svg>